<svg width="56" height="56" viewBox="0 0 56 56" fill="none" xmlns="http://www.w3.org/2000/svg">
<path d="M12.8072 23.7983V21.7267H6.70222C6.31969 21.7267 6.00973 21.4137 6.00973 21.0275C6.00973 20.6412 6.31969 20.3282 6.70222 20.3282H13.4997C13.8822 20.3282 14.1922 20.6412 14.1922 21.0275V23.7983C14.1922 24.1846 13.8822 24.4976 13.4997 24.4976C13.1172 24.4976 12.8072 24.1846 12.8072 23.7983ZM9.19518 29.2024H3.5813C3.19877 29.2024 2.88881 29.5154 2.88881 29.9016C2.88881 30.2879 3.19877 30.6009 3.5813 30.6009H9.19491C9.57744 30.6009 9.8874 30.2879 9.8874 29.9016C9.8874 29.5154 9.57744 29.2024 9.19491 29.2024H9.19518ZM10.7935 15.8838C10.7935 15.4975 10.4835 15.1845 10.101 15.1845H2.55919C2.17666 15.1845 1.8667 15.4975 1.8667 15.8838C1.8667 16.2701 2.17666 16.5831 2.55919 16.5831H10.101C10.4835 16.5831 10.7935 16.2701 10.7935 15.8838ZM54.1334 32.877V40.3335C54.1334 40.7198 53.8234 41.0328 53.4409 41.0328H49.666C49.5167 43.1346 47.7799 44.7997 45.6612 44.7997C43.4449 44.7997 41.6417 42.9791 41.6417 40.7408C41.6417 38.5025 43.4449 36.6819 45.6612 36.6819C47.4971 36.6819 49.046 37.9328 49.5247 39.634H52.7484V32.877C52.7506 32.1855 52.3332 31.5634 51.6966 31.3089L49.4172 30.3881C49.2136 30.3058 49.0605 30.131 49.0048 29.9167C48.3754 27.495 47.3159 25.2086 45.878 23.1689L45.8379 23.1122H40.0185V40.3335C40.0185 40.7198 39.7085 41.0328 39.326 41.0328H24.9959C24.6133 41.0328 24.3034 40.7198 24.3034 40.3335C24.3034 39.9473 24.6133 39.6343 24.9959 39.6343H38.6335V34.0783H11.7527V39.6343H14.7024C15.1811 37.933 16.73 36.6822 18.566 36.6822C20.7822 36.6822 22.5854 38.5028 22.5854 40.7411C22.5854 42.9794 20.7825 44.8 18.566 44.8C16.4472 44.8 14.7105 43.1349 14.5612 41.0331H11.0602C10.6777 41.0331 10.3677 40.7201 10.3677 40.3338V33.379C10.3677 32.9928 10.6777 32.6798 11.0602 32.6798H12.8069V26.9968H7.81408C7.43155 26.9968 7.12159 26.6838 7.12159 26.2975C7.12159 25.9113 7.43155 25.5983 7.81408 25.5983H17.4272C17.8098 25.5983 18.1197 25.9113 18.1197 26.2975C18.1197 26.6838 17.8098 26.9968 17.4272 26.9968H14.1919V32.6798H34.9029V12.5986H27.5714V17.387C27.5714 17.7733 27.2614 18.0863 26.8789 18.0863H22.1622C21.7797 18.0863 21.4697 17.7733 21.4697 17.387V12.5986H14.1922V18.0751C14.1922 18.4614 13.8822 18.7744 13.4997 18.7744C13.1172 18.7744 12.8072 18.4614 12.8072 18.0751V11.8993C12.8072 11.513 13.1172 11.2 13.4997 11.2H35.5957C35.9782 11.2 36.2882 11.513 36.2882 11.8993V32.6798H38.6338V22.4126C38.6338 22.0263 38.9437 21.7133 39.3263 21.7133H46.1955C46.4196 21.7133 46.6298 21.823 46.7597 22.0073L47.0068 22.3581C48.4735 24.4383 49.5715 26.7593 50.2526 29.2186L52.2116 30.0099C53.3749 30.4759 54.1372 31.6132 54.1334 32.877ZM26.1864 12.5986H22.8547V16.6877H26.1867V12.5986H26.1864ZM15.9317 40.7408C15.9317 42.2076 17.1137 43.4012 18.5662 43.4012C20.0188 43.4012 21.2007 42.2076 21.2007 40.7408C21.2007 39.274 20.0188 38.0805 18.5662 38.0805C17.1137 38.0805 15.9317 39.274 15.9317 40.7408ZM48.2957 40.7408C48.2957 39.274 47.1137 38.0805 45.6612 38.0805C44.2086 38.0805 43.0266 39.274 43.0266 40.7408C43.0266 42.2076 44.2086 43.4012 45.6612 43.4012C47.1137 43.4012 48.2957 42.2076 48.2957 40.7408ZM42.2563 30.2457C42.2563 30.632 42.5663 30.945 42.9488 30.945H45.926C46.3079 30.9455 46.6182 30.6331 46.6185 30.2474C46.6185 30.1945 46.6126 30.1416 46.601 30.0902C46.2165 28.3836 45.5509 26.7546 44.6318 25.2707L44.6127 25.2397C44.4019 24.9172 43.972 24.8285 43.6529 25.0416C43.3457 25.2467 43.2507 25.6587 43.4372 25.9792L43.4568 26.0114C44.1388 27.1118 44.6681 28.3011 45.0304 29.5467H42.9488C42.5666 29.5464 42.2566 29.8588 42.2563 30.2448V30.2457Z" fill="white"/>
</svg>
