<svg width="100" height="100" viewBox="0 0 100 100" fill="none" xmlns="http://www.w3.org/2000/svg">
<path d="M30 83.3333V74.3085H60M60 83.3333V65H45.2912V68.4973M45.2912 74.3045V83.3293Z" fill="#E3000F"/>
<path d="M30 83.3333V74.3085H60M60 83.3333V65H45.2912V68.4973M45.2912 74.3045V83.3293" stroke="#E3000F" stroke-width="2" stroke-linecap="round" stroke-linejoin="round"/>
<path d="M8.95484 77.0535V35.6214L44.8683 16.6667L81.0078 35.949V83.3334M3.33325 83.3334H86.8597M92.8268 83.3334H98.3332M69.4988 83.3334V48.5854H20.1626V83.3334M26.5107 55.7843H63.607M24.2913 40.5058H32.3228M40.8149 40.5058H48.8464M57.6443 40.5058H65.6758" stroke="#444444" stroke-width="2" stroke-linecap="round" stroke-linejoin="round"/>
</svg>
