<svg width="51" height="50" viewBox="0 0 51 50" fill="none" xmlns="http://www.w3.org/2000/svg">
<path d="M2.16663 10H8.33635V32.9564H2.16663M17.5657 12.9339H8.33635M8.33635 29.8595H11.4534L16.6439 38.4935C16.6439 38.4935 17.6852 40 19.5311 40M20.6183 34.598L22.9975 38.5587C23.4963 39.3899 24.5169 39.7369 25.4111 39.376M24.9652 31.3102L28.4684 37.292C28.9672 38.1233 29.9879 38.4702 30.8821 38.1093M29.25 28.2016L34.3209 35.9648C35.1439 37.2245 36.9943 37.1383 37.7 35.8088C38.1092 35.038 38.5161 34.0601 38.8333 32.8446" stroke="black" stroke-width="2" stroke-linecap="round" stroke-linejoin="round"/>
<path d="M48.8334 34.1666H42.9363V11.6949H48.8334M42.9363 14.5235L35.7099 11.3576C34.9211 11.0111 34.073 10.8333 33.2162 10.8333H27.2356C25.0274 10.8333 22.9489 11.9069 21.6197 13.7349L16.3334 20.9968C18.4163 22.9524 21.6153 22.8521 23.5817 20.7734L26.5193 17.6644L30.4456 18.0063L37.5577 31.9603H42.9341" stroke="#E3000F" stroke-width="2" stroke-linecap="round" stroke-linejoin="round"/>
<path d="M3.41663 28.3333C4.10698 28.3333 4.66663 27.7737 4.66663 27.0833C4.66663 26.393 4.10698 25.8333 3.41663 25.8333C2.72627 25.8333 2.16663 26.393 2.16663 27.0833C2.16663 27.7737 2.72627 28.3333 3.41663 28.3333Z" fill="black"/>
<path d="M48.4166 30C49.107 30 49.6666 29.4404 49.6666 28.75C49.6666 28.0596 49.107 27.5 48.4166 27.5C47.7263 27.5 47.1666 28.0596 47.1666 28.75C47.1666 29.4404 47.7263 30 48.4166 30Z" fill="#E3000F"/>
</svg>
